93336293697,4
93517971873,4
96219665480,2
95130229824,2
91472145311,2
95937939561,0
91085021632,1
98394464241,6
93654096452,4
97926591581,3
98071489870,2
96033611032,2
97164901288,5
96038030923,3
95480243340,7
97286465203,3
94063776218,3
94952545569,7
96901394002,5
90528101453,4
99787946979,6
98234647465,3
99063413839,5
99061565508,1
90954093841,2
98324803230,5
92201494772,2
93288898502,5
98830056970,5
95645034011,3
98259707409,6
99266285563,3
94709280538,6
92131777205,1
98849473536,1
94838748889,3
91563982610,2
91580516866,4
91128136680,5
93356644122,3
93046443085,3
98675845252,5
94533712866,6
96353193269,1
92939231793,2
97656610155,3
99668618993,3
92109640241,2
97971180680,3
91527392938,1
98902174547,5
98027521181,4
94743987792,2
97232313523,4
90533835871,4
90654451269,1
93191554199,1
98776063483,0
99527286191,5
91483318891,0
91899998727,0
96987620087,0
92646617818,0
91425549496,0
95181925087,0
98434469092,0
98359782441,0
90198252689,0
96994091786,0
90115003336,0
90832979339,0
91786997044,0
96513239062,7
93960181234,4
94679613010,0
96710654255,6
91550468190,3
98011597911,2
97994227525,3
90143853736,2
95445019047,3
91709010078,6
93280944672,2
91223039867,4
99396057868,6
91518991775,3
96686534810,3
95458814606,0
96245306192,5
99752682447,2
93585479620,3
98434184867,2
90099757541,2
94148676529,3
91606797202,3
91361408508,6
91567823281,5
96329185775,5
94481976073,5
94815570039,5
91186876592,2
92235615292,5
91563604182,6
98537168178,2
93879603154,4
93162262125,4
92856061226,4
97027392913,6
96433113501,5
91253607631,4
90027487790,2
99618138285,3
93918723390,8
99366493204,5
96352832964,2
99307663188,2
96500663320,4
96537289625,5
90268583796,2
96635035802,2
92287134921,3
93980781274,1
93187977781,4
90656136709,3
98948474433,1
96270462206,3
90923411221,1
94722076049,4
91261862942,5
92768583892,4
98443469362,4
96336589145,3
98118371173,3
94874685548,2
90109074255,4
93180123956,4
95442464592,1
94050943467,5
99793583858,0
91987361401,0
94147285952,0
95387582008,0
95409078933,0
95091814372,4
93858939581,4
98784881663,4
94101912572,2
97834653055,5
98170115877,2
99809108927,5
98249211163,2
94467674996,6
95718418172,4
99816276958,6
93186877501,4
99924068532,5
99949683183,3
92723285698,4
91774906001,4
95057997970,1
96300402723,3
90439888757,5
96179654366,6
97887205467,2
96375736913,4
97246816389,3
94498789047,2
93902095669,4
90572568250,4
92431689668,4
91027579835,4
95298990439,1
96843645073,5
98589369459,3
90789467160,4
97400162921,2
90885020045,7
93415816910,2
93744097296,6
95649084382,2
97255434511,5
98743335160,1
93793480442,5
91942795029,6
96864129867,6
93420152644,3
99087748492,3
90786284763,2
91501140720,6
93703810590,3
94623064371,2
95256828819,7
90305549734,1
98028070477,2
94596147079,2
98796154566,3
91320039483,4
94122962915,6
96215428690,4
98163012862,4
97544287900,6
96841881532,4
97418809998,1
91474621960,4
92040267758,2
91576092483,0
94979834430,0
99783206590,0
94771406652,0
94881687695,0
98291665377,0
93297051767,3
94619455029,8
93950280089,1
98123525799,4
91704504287,3
91015891974,2
95892999463,6
93064974065,3
94890387863,5
97892186563,4
97384367597,3
96366092199,3
94112575421,7
98775207961,2
93258011534,3
99137580645,7
92293232918,5
91992700453,5
97299644251,4
99998420870,5
92793834013,3
99730124385,5
98808167603,5
94225949216,3
96318194321,3
95429074955,3
98861106710,1
90491448248,6
91022773147,5
94390187186,5
91434001447,4
97244144341,3
93373735037,5
90877822527,3
95550197434,2
97581584324,2
94200848415,1
90935935443,5
97366943058,0
96883950446,2
95885697220,6
93103821246,4
92021657528,3
98497237857,0
98028156918,2
98577705285,2
90086882453,2
94984897317,0
90577245995,2
98722443156,2
92304527247,2
91843479087,2
93763190993,5
94448664338,4
98505518061,1
90335678349,4
91108055904,2
96992440999,4
90964809139,1
97385470467,0
91812972155,3
96471464282,2
96130235043,0
98350463882,0
91050077454,0
98836617559,0
94843552458,0
93199618908,0
90955212484,0
93442836423,8
99170128757,3
94553261306,4
92424671754,1
98545145735,1
95845420493,3
98218553034,1
92061090920,4
91024418080,3
94164945304,2
95433428099,7
99929289017,7
97648466088,2
98935900870,4
93707777258,4
95714687332,5
98258920377,2
97708505406,1
95573535767,1
90936748450,2
97490713395,2
98409836354,5
97712094006,6
91571229515,1
93607355373,2
92021026076,2
92405382866,1
94971015059,5
92925743870,6
94077111939,1
92050116977,4
92753520779,1
99841017539,5
92069255087,4
93694745134,5
93307972696,2
95307557152,2
97790640192,3
94764996049,3
97430792034,4
91755505929,4
90706362237,5
97999379814,2
93010946319,2
93271410303,1
94877063903,6
90034018735,3
96509053900,3
90361391170,2
95004981502,3
91316280960,5
94047423467,1
97232653918,4
95522342186,5
93520939240,1
96433813683,3
98389982810,2
99363673837,1
91196695493,2
97850225117,1
96496702327,0
91289117307,0
95757374608,0
90371858874,0
97939570667,0
97429092865,0
98301859826,0
97510447531,0
96124866062,3
96963684185,6
99678481701,5
98320793361,3
94251303814,6
90720718176,5
97158128625,1
94347940465,5
92967977759,5
92551537381,5
93962758436,2
98725748597,1
99752975736,7
96173779300,3
95995676873,2
90410898464,3
97088701803,5
90798839325,3
98014765301,4
98006105387,5
99937876312,1
92578986620,3
99351823023,2
93141919491,5
92887050272,4
97426080541,4
93280098060,3
91581468695,0
98277441913,3
98154784367,5
98200086657,4
92623293486,2
93735818616,5
91083836852,2
92386261458,8
92328303288,4
94366690555,3
96959337414,5
99638530234,7
98995747540,2
94686310216,3
98222155072,3
90211668965,3
90845247486,5
96020765811,1
94401981463,2
95503152666,1
99019180742,2
91982232357,3
97541735877,3
96657827046,4
93109983957,2
91701979591,4
93533387218,3
95148818354,3
95821255228,5
92534826118,4
92131078630,4
93083244985,5
98963758831,5
98563223812,0
91198932399,4
95599589187,2
96371758167,1
93709215918,3
99884319186,3
92415906757,0
97186120018,0
96944804809,0
92406271718,0
98650006879,0
94528964184,0
94536472843,0
98518399291,0
93574588574,3
97583217655,5
98688297729,4
92732063026,6
94795557303,5
99280263997,1
99430585522,2
92753537105,5
96941339168,5
92552327336,4
91663859859,5
95402074216,4
90714116387,4
91685108630,3
93221485021,5
93851027253,4
93958243382,6
91556648466,2
99385632033,3
90908003459,6
93375080153,4
93785584992,2
97110434649,3
94924232916,5
95906701136,2
92513913180,6
90206216533,3
90253319675,4
94779553562,5
93424663518,5
91771824761,5
91352070503,5
95378900110,1
95703072434,2
98235498957,0
93124520661,1
99714150561,6
91069824711,3
98138928371,4
91588030748,3
92470312973,3
99635009231,4
94499556889,2
91117220016,7
99131550450,3
98389772083,2
92896796308,3
95103032877,2
99624335574,4
99308016797,2
90735060242,4
97749915464,3
96247427174,5
90244145626,5
90519173796,2
98038492065,3
92589675195,5
96540713129,3
92578256677,3
94399531876,8
94588742918,5
92069233813,2
98665388108,4
91676378371,2
91014260441,5
97389881163,3
90006596838,4
93788046205,3
96674411980,2
95068617862,3
92187717672,1
98305876793,1
94722323333,0
93566323302,0
98934592127,0
92897979748,5
94412689198,6
94922699584,3
96921418244,4
90690821805,5
97846452265,2
95295573375,3
92308955493,5
94893419732,6
99437236910,4
96712189845,3
98516328102,1
94971384914,2
91003846249,2
97433424735,2
98952747249,5
95306252971,2
98322436055,3
98620746160,5
98810903853,7
98275953121,3
91756366515,2
90862702848,8
91172301505,5
98757664021,6
94911374408,4
93288954171,3
93967594019,1
99347089521,2
96839631853,4
95083164483,2
98517034747,5
92443096994,3
98893488521,3
95799578322,6
90980041753,5
96565616447,2
94848154114,4
96461117625,0
93286775337,2
95949355856,5
93530549467,2
93753697963,1
99107681259,2
95235339992,2
90264303707,2
91757200955,2
94277268697,5
98667454501,5
91138528678,4
96594883604,0
94265853222,0
99398626881,0
92438533878,0
99130069097,0
98518216716,0
90359462003,0
95921367848,4
96562498682,2
94766648112,5
98152440466,7
92086686719,2
93374491148,3
93639613796,6
90571435454,7
90540157512,5
97268389373,2
99721939452,6
93685772419,2
95668990701,6
94552770056,3
95943924930,6
90856090281,3
92159061325,2
97573145551,4
95888603947,6
91812551960,4
93243229525,5
94500830845,3
93893303819,1
99626278142,4
91673201630,4
94097810990,3
93824464782,5
97563426609,2
98839707707,2
90525159781,3
98696531582,5
99716075932,1
98128475845,1
95753603418,3
91012253211,4
90650427336,5
97830425803,6
91761718832,7
90022912307,1
94147244488,3
95621467686,3
96374895097,3
91947778203,2
95098741811,5
90764922276,4
95730670797,6
92598906389,4
94590440092,4
96097793363,0
94087750752,5
96351774430,2
99779513299,3
98492980017,2
90335689037,4
99494874704,2
94031617361,1
91378365774,3
94318994028,6
99740585881,3
92024556127,2
96591230273,5
95542534434,5
93558335661,2
91805802727,4
95050172831,3
92282797976,2
96568940954,0
95109822701,0
99545182542,0
97555563046,0
98481683997,0
93155272295,0
96489899403,0
96696958437,3
97740057014,4
97721995078,4
92506231040,1
93777530399,2
98101949780,3
92883854880,1
97720116222,5
91330506280,7
90752488630,3
94317821808,6
99025942242,4
93877461735,2
99554306242,2
92507660333,6
96614133548,3
93008073638,5
91203383384,4
95018457185,2
97644164630,5
90060326906,4
91361363996,6
93165513793,4
92976798005,6
93854599415,5
92315083963,2
98619513097,1
97131253695,3
96524016568,2
91699473869,3
94584430472,5
99146791986,3
97124377858,0
90340724408,2
99065532714,4
96482530851,3
93799614839,1
93468538672,7
99191698494,2
94344743228,3
97206617628,5
95848972186,2
93752905009,2
96199048518,2
91313831542,2
99169508994,5
92900913822,4
92002191723,3
99028078653,3
92984867081,4
90094755282,2
91870303550,4
93614467643,5
97071532036,2
93398397286,2
95809275583,5
98151886522,3
95647404866,3
91254120122,2
96107086242,3
92892128796,5
91866966293,2
99125236913,1
92329679791,3
90544836142,3
94583864951,5
94755745573,6
92179438548,3
98839310903,2
95146438889,3
97058176207,2
93579424668,1
99386373721,0
97508520164,0
90843087638,0
96421771754,0
93198545506,5
99233691981,1
91860671754,4
91496757831,6
95986665185,4
95090640807,4
97757831892,2
93939632990,4
94746643447,2
94667317719,2
97020492465,6
91266890498,2
95013633698,2
92395527824,3
90863455413,4
93561605025,4
98532370185,3
94586990643,1
90411644676,2
96645932135,4
97726143085,6
98990032368,2
94451592838,6
97543604398,4
94109613212,3
90541175815,1
93014704329,0
93553155420,1
94922698297,5
99767988990,5
95959227709,7
90104685952,5
92316694490,6
93304273790,5
95916056286,4
98053644775,6
99597897843,2
94295026292,2
90040350626,4
94157860154,2
96130569767,2
96210739235,6
92727424972,5
96972479717,6
90396555445,1
98999049233,0
97155984750,3
91989143828,4
94154341362,4
90056845139,5
91465199829,6
93466334821,4
90782793053,6
92481372311,5
92474908261,4
93856763384,3
99839603585,1
94262437448,3
92744562185,4
98169714104,5
98957321346,5
98175359100,3
97616875495,2
93754072372,2
94162120216,2
96589072658,3
94374800280,3
95916133791,1
92017536899,1
93343438379,0
90946189187,0
96511047219,0
98031973874,0
90389672092,0
99826871575,0
96461858212,0
97048386454,1
97376975944,3
92240829175,4
98394876495,5
97310308499,2
99097286343,1
96588045966,3
99869587955,4
93820355604,5
97698177832,3
93061348408,4
99616214987,5
93033216704,2
93494087978,1
93701331766,2
93865394917,5
94845804160,2
92712671796,5
95342517169,3
91951429430,4
94388081900,4
95965204294,4
94833411027,6
92244138933,0
92007822225,2
93174621594,4
93067358050,2
93929194918,2
99325106307,5
93131383427,5
99525142928,5
96664240635,2
99054407208,2
93136142788,4
97314281160,1
98201574293,4
91675322894,3
94926957711,4
94236882694,3
93266287274,4
98365249446,4
95481350954,7
98603428117,1
96661270236,5
92463134548,3
95200386760,5
98374937016,4
94712498124,2
91959656302,4
97614929230,4
93816614685,1
91749588139,2
91662701468,4
95328684143,1
97186298308,3
91604130663,4
94242091534,1
96434399029,1
99194894218,1
93370839087,0
93825600202,0
90452181996,0
91967726178,0
96202564177,0
99937933397,0
92236744212,0
97657653152,0
96775440054,0
97765765114,0
92273010659,0
91420344074,0
93262219091,4
98767563408,5
95474284221,6
97260259266,4
96917722113,6
91739005945,2
96651596459,2
92026812949,2
92569421864,2
90915224819,3
94647241086,3
93085557739,3
96015027004,4
96141060760,6
96289620257,4
92519736818,3
94857438584,4
93563602298,4
96915291900,2
92174473190,4
98479773526,5
96955844263,0
95826800179,3
93096582297,5
91250299706,2
93324526346,5
92611167853,7
90093940416,4
92313809213,5
93377114961,3
90445735565,5
96987103380,4
95678903655,4
95536784449,2
94606870130,2
99651451673,3
93924978844,2
94819092356,1
93785476340,4
90527879970,5
99794434477,5
99927544165,4
99098111305,3
91081455810,2
93217578345,4
92263560185,2
93891395643,3
98349777866,4
93179045758,4
90685322327,3
94789029336,4
99183736852,4
95833289902,3
99146818599,0
95355739336,4
92685864741,2
91307360670,1
93859450391,3
95120465661,5
95707467121,3
95447197369,4
99412778501,1
96691347408,1
91221586161,4
97481759580,2
95549310714,0
98530588594,0
91632677217,0
92413202948,0
92657665650,0
91238217181,0
99239246446,0
96163089223,6
90734519937,1
91755350791,6
96705038061,6
93169059943,1
92835343303,4
93150942500,5
95146749128,6
96137165877,3
94965363892,1
99718698047,0
94064239170,4
93468279572,2
97310009650,3
97679054638,1
98074290382,5
93769053303,3
94500031714,8
99849627901,1
90892897628,1
94606794304,3
98336124536,2
94263840774,6
98470881193,6
97385919989,4
97098592551,3
99487682058,4
99767122430,4
98597645339,3
92188300598,1
95342556423,1
92768856618,4
90294340060,1
99614131583,3
91615102612,2
91947580847,4
94138705759,4
92968080304,2
91033453785,1
97640411772,1
93144244592,1
98490459830,1
97776247333,6
93770994915,5
97973426648,4
93632489748,1
99918510505,4
98860323711,3
92681858570,1
92145587996,4
99728313238,1
92068294395,3
95575152514,1
93346035468,4
94638855682,2
94407873004,1
97005255894,0
92891206836,0
93329785606,0
97650145319,0
95772714437,0
91873666639,5
96675646545,4
99854190544,3
94895502370,2
97416397999,3
90595340928,4
96393045219,2
95318758704,3
95356383888,7
99343373062,4
91771415433,4
98187155979,4
98288460198,2
93254711392,4
90492065694,4
93802059347,3
97974680099,3
97185970957,0
93190877140,3
97550509108,3
94251822839,4
91202504642,6
93918769927,3
94031477587,3
98035762456,6
91137865035,6
92198701065,4
95563199620,2
97569892553,2
94805513995,3
91557301616,3
99280447885,3
95920358625,7
90770049873,4
94357416451,4
90543003688,4
98272066133,1
91218359013,4
92238994910,8
93584685385,2
97823142643,4
98229246636,3
99163767356,4
96157163244,6
99054567922,6
95158829494,2
99516319076,2
93852889473,2
93889651333,2
99907785557,1
98445171382,3
93926068376,3
92974285980,2
97256452486,2
94188724066,3
99153879510,0
90746190571,2
93577716579,4
93831461802,2
90874705253,4
93923663504,4
93190486794,2
90674872030,4
97976593647,2
97693685938,2
90037277541,0
92492467091,0
91415835465,0
96617258488,0
92525940196,0
99054759551,0
97115527087,0
93069353272,0
99646168529,0
90732636495,0
93793318042,0
94842812075,0
98471918950,0
91366558698,0
98440313098,0
94506104801,7
93522389764,3
98859711514,0
94886925853,3
94154211468,1
99128151813,5
92705238066,1
93926188837,4
94586044789,5
97877591538,2
90635471960,2
92289591054,4
90178925231,7
91492347518,7
96242313222,4
92868837572,3
90114233909,4
99444407600,3
91171873954,5
95288860980,5
98362080445,3
98322617828,6
95573300989,4
91829245796,2
93396966840,6
96979796298,6
90261546009,3
99919578075,4
94456020992,1
92213684575,5
97400840469,4
90082992341,4
95131047199,6
96502273724,6
94960717281,4
93731542203,4
93776948144,1
96399883659,5
91849416322,2
91372809787,1
90948500243,3
93312495753,2
98476524107,2
99675217650,4
92977839043,6
94955543308,3
90526421937,4
90156050521,4
99625812216,1
92516914393,4
90156956070,1
92842866889,2
92517525514,2
90156879450,2
95370258292,4
90488588332,5
92193207639,2
96179478924,1
94327425892,1
91604478535,3
94536564022,2
94785844498,2
91373829274,3
90880465871,1
92808199305,0
90233074180,0
90928128574,0
97208710161,0
91248254659,0
90763011101,0
93557093051,0
91483175912,5
90719587950,4
95915584286,3
94051014567,3
91317106451,3
92476534377,3
95923683974,3
90048971327,4
95724604053,7
92998931201,1
93902579116,3
99006284971,3
99296974092,2
91067499608,5
93803555435,4
98728596141,2
93795476700,5
98593383535,5
92772463787,2
91524648795,1
91319772201,4
97501007090,3
93890175660,2
96639815842,1
91208343156,4
97059332636,5
92637715067,3
96025340828,4
95081990010,1
97132763045,3
90216351301,3
91583783105,5
98945142221,1
96810599463,4
91064105245,3
99088407664,2
97406906296,6
98165262318,0
94006873615,4
94429979964,2
93086995208,2
91432993277,3
92942912571,2
97132675614,3
92534946227,3
92569363597,6
96527737119,2
94723019555,2
93720085984,1
96643465867,2
96894111928,2
99772628033,5
93398288809,2
94268874046,0
91888665248,0
99033797449,0
95538675995,0
98833165470,0
96711086991,0
97010361873,0
98131782279,9
94105648440,6
91676290462,6
97942288473,6
92040866981,1
94050067902,3
95691518995,6
91754909501,0
95065206589,1
99598162335,5
91283856665,3
94213102526,5
98856231445,5
91947678970,1
93070825405,2
96974988947,1
96130571183,3
92402907698,5
98680919867,3
95679111923,6
99246577565,3
94613992300,5
90829278743,4
92606850698,4
98148985666,2
90091172906,3
91242347809,1
93713352090,3
96748905972,4
96972270750,2
91859266175,6
94683110838,6
90518434215,4
94442079556,2
91566265744,3
99090473391,0
90270485647,5
92564223273,4
98842178599,2
91293708070,2
90757710805,1
97108538524,3
95840133022,2
90296503442,4
98850655292,3
97757078192,5
99384744638,0
94595173653,0
95057179426,0
98536391499,0
98068581229,0
92705800539,0
96039134864,0
95506718969,0
90388919687,0
92875837088,0
92204630911,5
98754717680,1
92865791736,2
96272144923,1
99424074117,2
90543689068,5
90444426876,5
98389476798,2
97878298142,3
95143984558,4
90860191928,4
93066638462,2
91356796459,6
94885820588,5
94492142380,4
99990642505,6
92023750750,1
98588358738,3
92799088461,4
95944249330,7
97523529750,4
91950874123,8
99902436120,2
91192619378,2
92129986606,4
91350882177,9
93581860445,3
98342065669,7
99825177559,6
99686971821,3
96006917191,4
90160538391,4
92053389854,4
99728032814,4
95134054382,5
94985880148,2
93639027437,2
92934741041,3
93860510782,3
97943974328,3
99073451847,1
99647060596,4
91603787306,3
95312276071,2
92209825750,2
97844324313,3
95736546928,5
92998805986,1
95221643711,7
99520395376,3
90491299198,6
99267737310,1
99321870321,2
96728960188,8
97633805772,2
96456606049,0
92063588541,2
99309864191,1
95514314255,2
98398530466,4
91047420675,3
91071692073,4
90121569743,0
95825040375,3
98828776476,5
92347635519,1
99737344286,3
99834595712,0
90390130278,0
92273909008,0
98364706495,0
92664046202,0
91629320766,0
91122178736,4
96910027808,3
93193927815,3
91094233995,2
91846060574,3
90465978911,2
98249570974,4
99109819363,4
98375113167,3
90982900170,1
99807116071,4
99235189084,6
96869779705,7
98772851418,2
95697106934,6
90702341803,2
97071005477,2
98416799684,2
91349267090,6
92496397447,3
94449561936,3
91567307253,5
96434150942,4
90327619915,5
99089276543,4
92470947116,2
96733919370,4
95971958699,5
95153733802,4
98877146222,2
97412558102,3
94569302736,3
96483032301,6
95437114030,1
93505943062,4
90120758999,5
99885039536,4
94382141266,1
96106432608,3
93914513322,2
98855008493,2
93571475434,5
95733272942,2
95318533036,3
94811710322,3
92836375362,4
97663818656,4
97497911158,6
94173475861,1
95888279452,2
96675880109,1
98312262972,6
92971225806,3
90297093916,3
94792400658,0
96789003568,0
92609192857,0
96688494464,0
98840551462,0
91773869247,0
97868778573,0
99191140162,0
99616164914,5
94748359965,3
96580296666,1
91979926191,4
97943711280,3
92183235148,4
94027897734,5
97848504564,3
95555645598,4
90891094687,1
96006775570,4
95616619848,7
99482522310,4
98781135178,5
92548028514,3
96152014826,6
97089846866,3
93650640251,1
98192544572,6
95616155326,2
97747990725,2
94679471052,1
99928706826,4
90851902193,3
99680455460,6
91200805562,1
95812951248,3
90299224256,8
92263735903,5
98068126382,1
93251593929,6
94401751044,3
91169726545,2
97156856501,4
90178677232,5
90411739749,1
92970240625,2
96953483596,3
97019640456,5
95951709487,3
95058639613,4
92166577334,6
99824374372,4
92085484027,0
91820538328,3
96149276430,4
91086741634,2
95578326922,3
93904255076,3
96286626943,6
93174065964,6
93880082920,2
95076391223,1
93027453125,3
93798946250,4
92260947174,1
99139230660,3
94308833785,0
99404850069,2
99903613566,3
96115322591,0
95210348702,0
95657207667,0
94893993471,0
98854509826,0
94938476511,5
97626883148,7
98548808718,3
90581379028,7
97655460110,3
91697366628,2
95579231609,5
93405879691,1
98223885279,4
92019675550,2
90765831788,4
96954617810,5
94118232194,2
90897796938,5
95345058808,4
99300552646,2
91994406037,6
96853765618,4
98803629026,2
98110409617,5
91944858158,1
98966846006,1
92179666900,4
99681931990,3
94176605132,8
97125308147,1
96737290224,4
91459703936,1
91544357011,4
95332967318,4
92460041510,5
92060439503,3
93498304895,3
96926494533,6
99913685634,5
97678358967,7
91110449897,3
96031029727,3
96205082736,3
94758854555,3
94796197177,3
98821699346,1
91467646541,3
98559500397,2
93783296679,3
94058334678,0
94174251184,2
94599472269,2
93955668936,3
90133346749,3
90015077580,1
99659551637,3
93999058972,4
98408159210,3
99996107642,3
95722329819,2
92428437710,0
94012975179,0
91134860502,0
96925517885,0
96436289870,0
97178215155,0
92582895224,0
94586167374,0
93957081862,5
97454623436,6
91597695160,2
95032196149,2
98829335895,5
91945057148,1
97843146214,6
98336776267,2
96553387436,2
90559497219,1
97358939755,3
96685204901,9
93712744766,3
94969322609,1
94504009973,2
91943511148,4
96073084045,7
93820082604,4
91995185945,1
99323157071,2
96309631450,6
90100198448,4
90086040122,3
98551901140,5
98300996862,3
93312334948,4
91298058185,2
98795767960,3
93323734528,4
91559525326,4
95309644925,2
99139531809,3
98812058012,2
97143073392,4
96677681566,4
96782439779,4
94961912701,2
97989338898,0
99815501002,3
91832309991,2
97658660315,1
90483538328,2
99240634204,3
96219095813,4
98037868004,3
95325175903,2
97289575803,2
91167384425,4
92869209851,3
93576196062,4
96481996318,1
92798258317,5
90411608415,2
95475624497,3
90466912946,2
98123125153,3
94475320002,7
94867381064,5
98689778315,3
91344750685,0
94172938765,3
98001382431,4
90930631309,2
97814004982,3
94217832646,1
98871286531,5
97871635636,0
97143954933,0
92981994715,0
90571054234,0
94817876531,0
99850489498,0
96913522293,0
94192263066,0
93452259617,0
97219297690,0
90782577088,0
93940129439,7
90041266848,4
97032275109,1
94676188774,6
93715759873,2
93245899067,1
95768460615,2
91013363773,4
97515066540,3
98788264844,3
94951818906,3
94029812575,3
93488476152,3
95717557022,3
99468731872,4
96148982455,3
98992723133,3
94617999338,4
93515829947,3
91298055408,2
96127984022,5
93202738335,0
90651473151,6
97297981114,4
92447363251,2
99170717432,1
96638973086,2
91298545382,4
91235161296,0
93025345039,3
99847285167,2
99296821642,3
94871542696,1
92904384919,3
99428029733,1
97711244740,2
95848449844,4
90607321306,4
94733715888,4
92930432665,6
94062273482,4
95170144027,3
90244514055,4
91613468287,5
99182855244,3
95125032240,5
91150251684,1
98859424074,3
92210013769,3
93019460995,2
96842084945,2
95583076365,1
95491659060,0
95909558384,2
93313523426,4
97731269207,3
96783760971,2
97811566369,3
90088034575,4
95599539032,0
98666525924,0
98305603144,0
97574314606,0
91511755126,0
90584515968,0
97708075149,0
95575296117,0
96170301894,0
90066095095,0
91178359097,0
95325556836,0
93746543087,3
97689444855,5
90714424400,3
99559487455,4
93502534365,3
90227230401,5
95457098263,6
93636221395,3
91159564738,2
91753279610,3
93079533812,6
92326833498,6
96675320817,7
97874988058,2
97520008441,2
95474877486,2
94986709983,1
91262270921,2
94583156429,3
98252756196,4
99412175181,2
96298165832,3
92395973770,1
96294008715,0
92715189310,2
99788413632,3
92887096031,2
90691547298,5
97573237525,6
98051090455,2
94952879049,5
90392573072,5
94460688902,3
98793485353,7
94715605666,6
91912778876,3
95562594604,4
90347455941,3
94990943096,4
96194276350,4
93471460480,7
90565563024,2
91687081327,2
92745765504,4
90388722062,5
99312087333,6
99748385569,5
94361295833,2
91512145412,2
92834482967,5
93750494868,2
98538312774,2
91993363998,4
99266108696,3
95450946609,3
96964778759,4
92959975562,3
94101181340,3
92499507096,3
95734856737,1
92637774641,3
92225714644,7
91184411466,3
92508671773,2
95258845208,3
91445809301,1
94388814793,3
94166524318,2
96471212510,2
98489838045,4
95758716442,3
91046097423,5
90728748041,3
96220102616,3
96271058681,0
92963822142,2
93666414986,0
94407023152,0
94058187091,0
91273612825,0
99986018360,0
93603551102,0
91109443810,0
94039722613,0
94293829752,0
97076750191,4
90446969253,3
95906213030,2
92851991186,2
97774993382,5
90982323548,1
94529831549,5
94461018363,3
93310443003,6
90576343022,5
93075603155,8
99979716622,2
92642474769,5
92548300323,3
93150440966,3
97416913153,3
97690476174,3
98412730007,4
96639419066,6
93318296504,5
92836309185,3
95811077948,5
94920139622,2
99751611451,5
96912670929,2
93079311078,5
97273474615,3
95864669771,8
93205886181,4
92236217343,2
99578808528,8
92783999841,2
97744838382,3
98122922070,3
94077806778,9
94444372304,3
90055356575,3
98543898517,2
91780644897,4
91567614358,4
99301708390,2
90834848518,5
94189213171,6
95714386640,3
94113103640,3
90632969831,5
97983637766,5
90746206076,6
92689810144,5
97410070394,3
92360335304,6
93846667311,2
97144797916,4
91544629974,1
95167668224,5
94641479674,3
97542944387,2
98157816937,4
97543698351,2
99078556566,3
97323121797,2
93082677624,3
99916577224,3
90798564204,2
97859712988,3
91716496480,2
97554848450,1
94791475539,3
96243220058,1
99255648883,4
92297095262,1
93821977697,2
96519051675,2
91120639225,0
94409563309,0
94446415143,0
90516362118,0
96929917510,0
92931472656,0
99390956053,5
96915298415,8
99870561430,4
95375919013,3
90287675608,3
97065865953,6
98904026776,0
93283752431,3
98199296344,4
98477960334,1
96171950577,2
90651498084,2
94749332317,4
99716170238,4
97998911572,1
99854624086,5
90940623831,4
93310396488,7
97587918463,0
97930131164,3
93388715320,3
94685541693,4
92715810876,0
91955488442,4
98259966802,3
91767431769,2
91805768525,4
91828501107,2
96934850678,3
92482167277,5
99624042082,4
97179063787,5
92828385169,1
91718268293,8
95119597519,3
95016456062,7
95850692103,4
94980258515,3
94514883399,3
94061662631,4
90199278734,4
97331997888,1
97857029334,5
91540048215,2
99611339594,5
92362748037,2
92618069675,1
91820210480,3
95783294180,7
99360664585,4
95034676369,0
92984395980,0
90671721590,3
90361891895,1
94569896718,3
91092471186,5
97097843997,1
99475046772,3
92044673163,4
94792381315,3
97671360665,1
98392601972,6
90189594424,1
91766529313,5
99149382337,2
94148704246,0
90215553221,0
96775566240,0
98684693029,0
92575579874,0
90122099387,0
91641420320,0
90030058007,0
90233619687,0
95178031959,0
99440033525,0
99082496012,0
96018733960,2
95239769094,2
96089556982,6
90795279614,2
96117841484,4
98565450665,3
90145497814,1
99482778530,3
99384689755,3
90620831776,4
96174883592,3
90931295571,4
92092147861,3
95360830037,1
98091003880,4
98336890676,5
92330717037,6
93735513076,6
93283445239,2
97312273648,2
90034514245,3
98629671289,5
98575946180,5
93700999504,4
99699286995,3
97765104837,4
93299181525,7
99203056648,4
97386246445,5
91532400659,3
94251714408,1
90371768816,2
94232618092,6
95100599780,2
95748847339,7
90694501855,2
97989685297,4
94146086926,3
95424952585,3
92435783995,6
93791337243,2
96188777739,1
90305714452,4
97135690738,3
97391866359,6
94289549598,2
91667519126,2
99079906381,3
98497506930,4
91783710034,2
99174234128,2
93568942313,4
90190241261,4
91335581543,3
90491484609,2
96339071154,3
96377964576,1
96421587237,4
96415998648,1
92322700244,1
97817471985,2
99344104199,3
98681635416,1
90994384391,0
95726160240,0
91182671582,0
93439885066,0
91304369158,0
96146655140,0
95240581163,0
97265209183,4
93746336791,4
99045712052,3
94045541830,5
90129261989,4
93293482702,3
96475942237,5
98075861010,8
95585539365,1
94447782083,6
94595149363,3
98851979327,1
97485122696,4
98278129679,5
96471921486,5
94943470192,2
94575983414,3
96628506136,3
92520689101,7
91109182808,2
91333950847,4
96651575875,3
99017325016,5
94967922508,3
90929849539,2
95469369348,2
99815198555,3
93976484235,1
93761865816,2
90003768762,5
90746352799,5
92830986879,1
92701029154,5
96049872568,3
97722613946,5
94833213110,5
97246721631,2
95590268532,8
91552111391,2
97839639463,1
93966353929,4
96225735961,5
96483310963,3
93287256115,4
91081860231,5
94359786409,2
92866011169,2
96720529236,6
96364588453,2
96699396194,3
96886695468,2
92957375529,0
90108206629,1
93920745270,1
93338075200,3
91732682155,2
91172276681,3
98355441955,0
99179182950,0
97377724875,0
99167350779,0
92187042237,0
98539342414,0
98972286475,0
97504636760,0
95977141703,0
94161919541,0
93185786825,0
90763998570,0
93825043649,5
90660857583,3
94381776233,2
92723778658,2
96151651311,3
92094872609,2
92133442848,2
97968969089,4
95656302171,4
99889004734,5
97914324999,4
90782897434,4
90720242591,6
92911543607,4
94590255392,7
91327593889,5
98967528929,1
93017765023,3
94361870256,6
91073371203,3
92019281894,4
93756948258,3
93809690086,3
97297760137,3
94936474686,4
98886990014,2
93947472942,6
91239305338,4
96949578032,3
93834983137,4
98962968063,4
98849533393,5
92445929127,4
92015508688,1
97902364036,1
94106934499,1
91818813688,1
92440990941,3
97433041858,3
98655932058,0
91567518576,3
94447385480,5
94079653530,4
97117130357,3
90355926737,2
95714351410,4
94249885102,4
96832291035,3
93969931079,4
93243950830,3
94966298777,2
98675846987,4
98634550759,2
94616579966,3
91733945868,4
94477498201,3
96157783955,4
93375088227,4
95760991170,2
97897801951,0
93344489578,0
97450556130,0
95104259789,0
90906774155,0
93839455073,0
93569620564,0
96890648615,5
93498430583,5
96130443715,4
98515680781,5
95037338177,3
90869106115,5
98272306842,4
96384184011,4
94757958391,5
98255823940,2
96293919264,4
91518896112,4
93868779892,2
97155116204,2
92370418886,3
97197205881,5
97916861196,4
93984541417,5
95243037917,6
93953273206,6
94985821246,3
90141168377,2
92165667314,4
99342345465,3
96485052143,3
95864752178,4
96865759637,5
94112149482,3
93894041699,3
91488521350,6
95778043016,4
98029452155,2
94976267675,6
96501032185,4
96023646619,1
94434033635,4
91364178857,3
91454134606,3
90394209870,5
98186789700,2
90300657944,1
98497232334,6
98455737600,7
93847574915,3
93518844547,2
93658875896,4
98626830469,1
93646123097,5
95908081541,3
96272100700,2
93672957324,2
95573232071,1
99398948542,2
94503674671,6
97658562997,3
93586414879,2
91835186920,5
98021257958,5
96481230855,5
97972768657,2
97948755637,7
99700008833,1
94197192422,3
97665839922,3
99358339611,3
95188367436,3
93001523410,0
90080722602,0
97243953425,0
97503981574,0
90407503404,0
98401807132,0
99741236809,0
98664076976,0
91497687487,6
94845187384,3
92864451115,5
97272063459,2
98980062463,3
96699202292,5
97339504626,4
97771418984,3
97101019955,5
91807682982,5
95181403633,5
91986716705,5
91580690607,1
98553828916,2
93605502474,3
95912482715,2
98013233290,1
97033237611,3
91275275284,3
94756673023,0
94319440390,1
90714832346,2
96252432016,4
97697636861,2
93188046464,5
91019218542,6
94589640106,1
92116043341,2
91861987972,5
91795369446,3
93822226331,3
95195171061,5
94895944639,4
93829756153,2
91532403593,4
90548539466,4
97687885899,4
94811661596,5
95003379709,2
93061109664,1
93701572662,5
99980164844,0
97733058370,0
98519922434,6
94474890930,3
90371597672,3
96681180684,5
94338603613,5
97573740056,3
94561891439,3
99008423389,3
90170773448,8
98447365682,5
93634511170,2
93348155172,4
96788030635,1
91756594796,5
94452122918,1
98695324912,4
90559106830,1
96135126042,1
92582931586,0
90637354319,0
99888964257,0
93905035330,0
91387386854,0
90252777877,0
93247582100,0
98966217259,0
98113627635,0
